<define-tag pagetitle>DSA-4616-1 qemu</define-tag>
<define-tag report_date>2020-2-02</define-tag>
<define-tag secrefs>CVE-2019-15890 CVE-2020-7039 CVE-2020-1711</define-tag>
<define-tag packages>qemu</define-tag>
<define-tag isvulnerable>yes</define-tag>
<define-tag fixed>yes</define-tag>
<define-tag fixed-section>no</define-tag>

#use wml::debian::security



</dl>
