<define-tag pagetitle>DSA-4750-1 nginx</define-tag>
<define-tag report_date>2020-8-26</define-tag>
<define-tag secrefs>CVE-2020-11724 Bug#964950</define-tag>
<define-tag packages>nginx</define-tag>
<define-tag isvulnerable>yes</define-tag>
<define-tag fixed>yes</define-tag>
<define-tag fixed-section>no</define-tag>

#use wml::debian::security



</dl>
