<define-tag pagetitle>DLA-933-1 roundcube</define-tag>
<define-tag report_date>2017-5-7</define-tag>
<define-tag secrefs>CVE-2017-8114 Bug#861388</define-tag>
<define-tag packages>roundcube</define-tag>
<define-tag isvulnerable>yes</define-tag>
<define-tag fixed>yes</define-tag>
<define-tag fixed-section>no</define-tag>

#use wml::debian::security

