<define-tag pagetitle>DLA-1198-1 libextractor</define-tag>
<define-tag report_date>2017-12-4</define-tag>
<define-tag secrefs>CVE-2017-15266 CVE-2017-15267 CVE-2017-15600 CVE-2017-15601 CVE-2017-15602 CVE-2017-15922 Bug#878314 Bug#880016</define-tag>
<define-tag packages>libextractor</define-tag>
<define-tag isvulnerable>yes</define-tag>
<define-tag fixed>yes</define-tag>
<define-tag fixed-section>no</define-tag>

#use wml::debian::security

