<define-tag pagetitle>DLA-2106-1 libgd2</define-tag>
<define-tag report_date>2020-02-17</define-tag>
<define-tag secrefs>CVE-2018-14553 Bug#951287</define-tag>
<define-tag packages>libgd2</define-tag>
<define-tag isvulnerable>yes</define-tag>
<define-tag fixed>yes</define-tag>
<define-tag fixed-section>no</define-tag>

#use wml::debian::security

