<define-tag pagetitle>DLA-2396-1 tigervnc</define-tag>
<define-tag report_date>2020-10-06</define-tag>
<define-tag secrefs>CVE-2020-26117 Bug#971272</define-tag>
<define-tag packages>tigervnc</define-tag>
<define-tag isvulnerable>yes</define-tag>
<define-tag fixed>yes</define-tag>
<define-tag fixed-section>no</define-tag>

#use wml::debian::security

