<define-tag pagetitle>DLA-2270-1 jackson-databind</define-tag>
<define-tag report_date>2020-07-01</define-tag>
<define-tag secrefs>CVE-2020-14060 CVE-2020-14061 CVE-2020-14062 CVE-2020-14195</define-tag>
<define-tag packages>jackson-databind</define-tag>
<define-tag isvulnerable>yes</define-tag>
<define-tag fixed>yes</define-tag>
<define-tag fixed-section>no</define-tag>

#use wml::debian::security

