<define-tag pagetitle>DLA-2150-1 thunderbird</define-tag>
<define-tag report_date>2020-03-20</define-tag>
<define-tag secrefs>CVE-2019-20503 CVE-2020-6805 CVE-2020-6806 CVE-2020-6807 CVE-2020-6811 CVE-2020-6812 CVE-2020-6814</define-tag>
<define-tag packages>thunderbird</define-tag>
<define-tag isvulnerable>yes</define-tag>
<define-tag fixed>yes</define-tag>
<define-tag fixed-section>no</define-tag>

#use wml::debian::security

