<define-tag pagetitle>DLA-2117-1 zsh</define-tag>
<define-tag report_date>2020-02-24</define-tag>
<define-tag secrefs>CVE-2019-20044 Bug#951458</define-tag>
<define-tag packages>zsh</define-tag>
<define-tag isvulnerable>yes</define-tag>
<define-tag fixed>yes</define-tag>
<define-tag fixed-section>no</define-tag>

#use wml::debian::security

