<define-tag pagetitle>DLA-1426-1 cups</define-tag>
<define-tag report_date>2018-7-14</define-tag>
<define-tag secrefs>CVE-2018-4180 CVE-2018-4181 CVE-2018-6553</define-tag>
<define-tag packages>cups</define-tag>
<define-tag isvulnerable>yes</define-tag>
<define-tag fixed>yes</define-tag>
<define-tag fixed-section>no</define-tag>

#use wml::debian::security

