<define-tag pagetitle>DLA-1564-1 mono</define-tag>
<define-tag report_date>2018-11-1</define-tag>
<define-tag secrefs>CVE-2009-0689</define-tag>
<define-tag packages>mono</define-tag>
<define-tag isvulnerable>yes</define-tag>
<define-tag fixed>yes</define-tag>
<define-tag fixed-section>no</define-tag>

#use wml::debian::security

