<define-tag pagetitle>DLA-1239-1 poco</define-tag>
<define-tag report_date>2018-1-10</define-tag>
<define-tag secrefs>CVE-2017-1000472</define-tag>
<define-tag packages>poco</define-tag>
<define-tag isvulnerable>yes</define-tag>
<define-tag fixed>yes</define-tag>
<define-tag fixed-section>no</define-tag>

#use wml::debian::security

