<define-tag pagetitle>DSA-4472-1 expat</define-tag>
<define-tag report_date>2019-6-28</define-tag>
<define-tag secrefs>CVE-2018-20843 Bug#931031</define-tag>
<define-tag packages>expat</define-tag>
<define-tag isvulnerable>yes</define-tag>
<define-tag fixed>yes</define-tag>
<define-tag fixed-section>no</define-tag>

#use wml::debian::security



</dl>
